[
    {
        "categorie": "Student", 
        "values": [
            {
                "value": 5, 
                "rate": "Not at all"
            }, 
            {
                "value": 2, 
                "rate": "Not very much"
            }, 
            {
                "value": 20, 
                "rate": "Medium"
            }
        ]
    }, 
    {
        "categorie": "Liberal Profession", 
        "values": [
            {
                "value": 3, 
                "rate": "Not at all"
            }, 
            {
                "value": 19, 
                "rate": "Not very much"
            }, 
            {
                "value": 10, 
                "rate": "Medium"
            }
        ]
    }, 
    {
        "categorie": "Salaried Staff", 
        "values": [
            {
                "value": 8, 
                "rate": "Not at all"
            }, 
            {
                "value": 17, 
                "rate": "Not very much"
            }, 
            {
                "value": 2, 
                "rate": "Medium"
            }
        ]
    }
]
